\BOOKMARK [2][]{Outline0.1}{Introdu\347\343o}{}% 1
\BOOKMARK [3][]{Outline0.1.1.3}{Motiva\347\343o}{Outline0.1}% 2
\BOOKMARK [3][]{Outline0.1.2.4}{Problemas}{Outline0.1}% 3
\BOOKMARK [3][]{Outline0.1.3.5}{Objetivos}{Outline0.1}% 4
\BOOKMARK [3][]{Outline0.1.4.6}{Contribui\347\365es}{Outline0.1}% 5
\BOOKMARK [3][]{Outline0.1.5.7}{Metodologia}{Outline0.1}% 6
\BOOKMARK [2][]{Outline0.2}{Biblioteca Digital}{}% 7
\BOOKMARK [3][]{Outline0.2.1.8}{Bibliotecas Digitais}{Outline0.2}% 8
\BOOKMARK [3][]{Outline0.2.2.10}{Artefato Digital}{Outline0.2}% 9
\BOOKMARK [3][]{Outline0.2.3.11}{Padr\365es de metadados}{Outline0.2}% 10
\BOOKMARK [2][]{Outline0.3}{Padr\343o OAI-PMH}{}% 11
\BOOKMARK [3][]{Outline0.3.1.12}{Padr\343o OAI-PMH}{Outline0.3}% 12
\BOOKMARK [2][]{Outline0.4}{Linked Data}{}% 13
\BOOKMARK [2][]{Outline0.5}{Participa.br}{}% 14
\BOOKMARK [3][]{Outline0.5.1.19}{O Participa.br}{Outline0.5}% 15
\BOOKMARK [3][]{Outline0.5.2.21}{Noosfero}{Outline0.5}% 16
\BOOKMARK [2][]{Outline0.6}{Desenvolvimento}{}% 17
\BOOKMARK [3][]{Outline0.6.1.26}{Ferramentas utilizadas}{Outline0.6}% 18
\BOOKMARK [3][]{Outline0.6.2.27}{Proposta de arquitetura}{Outline0.6}% 19
\BOOKMARK [2][]{Outline0.7}{Conclus\343o}{}% 20
